^F:\CODE\BARDCORE - NETWORKING\GSP381 D3D FRAMEWORK\PRNG\RANDOMNUMBER.CPP
F:\CODE\BARDCORE - NETWORKING\GSP381 D3D FRAMEWORK\PRNG\DEBUG\RANDOMNUMBER.OBJ
F:\CODE\BARDCORE - NETWORKING\GSP381 D3D FRAMEWORK\PRNG\DEBUG\VC110.PDB
